<?xml version="1.0" encoding="UTF-8"?>
<model modelUID="r:b90dfbcb-3bd6-4f9b-b225-2e4a3e2abfe1(timetable.language.typesystem)">
  <persistence version="8" />
  <language namespace="7a5dda62-9140-4668-ab76-d5ed1746f2b2(jetbrains.mps.lang.typesystem)" />
  <devkit namespace="fbc25dd2-5da4-483a-8b19-70928e1b62d7(jetbrains.mps.devkit.general-purpose)" />
</model>

