<?xml version="1.0" encoding="UTF-8"?>
<model modelUID="r:fbed0902-6fb9-46ed-a0b5-0ad24a836144(BaseLanguageEx.constraints)">
  <persistence version="8" />
  <language namespace="3f4bc5f5-c6c1-4a28-8b10-c83066ffa4a1(jetbrains.mps.lang.constraints)" />
  <devkit namespace="fbc25dd2-5da4-483a-8b19-70928e1b62d7(jetbrains.mps.devkit.general-purpose)" />
</model>

