<?xml version="1.0" encoding="UTF-8"?>
<model modelUID="r:1f60e560-862b-4984-9bd2-30ff280cd55e(BaseLanguageEx.editor)">
  <persistence version="8" />
  <language namespace="18bc6592-03a6-4e29-a83a-7ff23bde13ba(jetbrains.mps.lang.editor)" />
  <devkit namespace="fbc25dd2-5da4-483a-8b19-70928e1b62d7(jetbrains.mps.devkit.general-purpose)" />
</model>

