<?xml version="1.0" encoding="UTF-8"?>
<model modelUID="r:6868d42f-4b79-47f1-9096-9ae218ed62ae(BaseLanguageEx.structure)">
  <persistence version="8" />
  <language namespace="c72da2b9-7cce-4447-8389-f407dc1158b7(jetbrains.mps.lang.structure)" />
  <devkit namespace="fbc25dd2-5da4-483a-8b19-70928e1b62d7(jetbrains.mps.devkit.general-purpose)" />
  <import index="tpce" modelUID="r:00000000-0000-4000-0000-011c89590292(jetbrains.mps.lang.structure.structure)" version="0" implicit="yes" />
  <import index="tpck" modelUID="r:00000000-0000-4000-0000-011c89590288(jetbrains.mps.lang.core.structure)" version="0" implicit="yes" />
  <import index="tpee" modelUID="r:00000000-0000-4000-0000-011c895902ca(jetbrains.mps.baseLanguage.structure)" version="5" implicit="yes" />
  <root type="tpce.ConceptDeclaration" typeId="tpce.1071489090640" id="2705063230144358123" nodeInfo="ig">
    <property name="name" nameId="tpck.1169194664001" value="Power" />
    <property name="conceptAlias" nameId="tpce.5092175715804935370" value="^^" />
    <property name="conceptShortDescription" nameId="tpce.4628067390765907488" value="power operation" />
    <link role="extends" roleId="tpce.1071489389519" targetNodeId="tpee.1081773326031" resolveInfo="BinaryOperation" />
  </root>
</model>

