<?xml version="1.0" encoding="UTF-8"?>
<model modelUID="r:2b97fb0d-02f7-4cc3-990e-604bc1416d5f(BaseLanguageEx.textGen)">
  <persistence version="8" />
  <language namespace="b83431fe-5c8f-40bc-8a36-65e25f4dd253(jetbrains.mps.lang.textGen)" />
  <devkit namespace="fbc25dd2-5da4-483a-8b19-70928e1b62d7(jetbrains.mps.devkit.general-purpose)" />
</model>

