<?xml version="1.0" encoding="UTF-8"?>
<model modelUID="r:76f7acec-a53e-4ac7-9e6c-1851ca45c212(timer.constraints)">
  <persistence version="8" />
  <language namespace="3f4bc5f5-c6c1-4a28-8b10-c83066ffa4a1(jetbrains.mps.lang.constraints)" />
  <devkit namespace="fbc25dd2-5da4-483a-8b19-70928e1b62d7(jetbrains.mps.devkit.general-purpose)" />
  <import index="fzrt" modelUID="r:b0e452d6-d327-4d71-befa-a7ccd1e25ab2(timer.structure)" version="6" />
</model>

