<?xml version="1.0" encoding="UTF-8"?>
<model modelUID="r:09c2e1c6-9fb1-416b-9566-f698cdfd84f0(timer.typesystem)">
  <persistence version="8" />
  <language namespace="7a5dda62-9140-4668-ab76-d5ed1746f2b2(jetbrains.mps.lang.typesystem)" />
  <devkit namespace="fbc25dd2-5da4-483a-8b19-70928e1b62d7(jetbrains.mps.devkit.general-purpose)" />
  <import index="fzrt" modelUID="r:b0e452d6-d327-4d71-befa-a7ccd1e25ab2(timer.structure)" version="6" />
</model>

