<?xml version="1.0" encoding="UTF-8"?>
<model modelUID="r:60c8de0f-4ad3-444e-b8f1-2ce992362180(demo.trace.aspect.behavior)">
  <persistence version="8" />
  <language namespace="af65afd8-f0dd-4942-87d9-63a55f2a9db1(jetbrains.mps.lang.behavior)" />
  <devkit namespace="fbc25dd2-5da4-483a-8b19-70928e1b62d7(jetbrains.mps.devkit.general-purpose)" />
</model>

