<?xml version="1.0" encoding="UTF-8"?>
<model modelUID="r:e50f5844-a2df-4786-83b3-051a3dbd1ae5(demo.trace.aspect.editor)">
  <persistence version="8" />
  <language namespace="18bc6592-03a6-4e29-a83a-7ff23bde13ba(jetbrains.mps.lang.editor)" />
  <devkit namespace="fbc25dd2-5da4-483a-8b19-70928e1b62d7(jetbrains.mps.devkit.general-purpose)" />
</model>

