6dany@dany-ubuntu:~$ ghci
Prelude> let v = 12 / 28
Prelude> v
0.42857142857142855
Prelude> sqrt $ v*(1-v) / 28
9.352195295828244e-2
Prelude> 1.64 * (sqrt $ v*(1-v) / 28)
0.1533760028515832
Prelude> v + 1.64 * (sqrt $ v*(1-v) / 28)
0.5819474314230118
Prelude> v - 1.64 * (sqrt $ v*(1-v) / 28)
0.27519542571984534
Prelude> :c
:cd        :check     :cmd       :complete  :continue  :ctags     :ctags!
Prelude> 
Leaving GHCi.
dany@dany-ubuntu:~$ ghci
GHCi, version 7.8.2: http://www.haskell.org/ghc/  :? for help
Loading package ghc-prim ... linking ... done.
Loading package integer-gmp ... linking ... done.
Loading package base ... linking ... done.
Prelude> let k = 12
Prelude> len n = 28

<interactive>:3:7: parse error on input ‘=’
Prelude> let n = 28
Prelude> let v = k / n
Prelude> let pp = 1.64 * (sqrt $ 1 / 28 *v * (v-1) )
Prelude> v + pp
NaN
Prelude> v - pp
NaN
Prelude> pp
NaN
Prelude> let pp = 1.64 * (sqrt $ 1 / 28 * v * (v-1) )
Prelude> v
0.42857142857142855
Prelude> let pp = 1.64 * (sqrt $  v * (v-1) / n)
Prelude> pp
NaN
Prelude> let pp = 1.64 * (sqrt $  v * (1-v) / n)
Prelude> pp
0.1533760028515832
Prelude> v + pp
0.5819474314230118
Prelude> v - pp
0.27519542571984534
Prelude> 0.43+1.64*((1/28)*0.43*0.57)
0.44435585714285714
Prelude> 0.43-1.64*((1/28)*0.43*0.57)
0.41564414285714285
Prelude> let a = 0.52
Prelude> let n = 400
Prelude> let k = 235
Prelude> let z = (sqrt n) * (k/n - a) / (sqrt $ a * (1-a))
Prelude> z
2.7021625954608455
Prelude> 
Leaving GHCi.
dany@dany-ubuntu:~$ 
dany@dany-ubuntu:~$ прсш
прсш: command not found
dany@dany-ubuntu:~$ ghci
GHCi, version 7.8.2: http://www.haskell.org/ghc/  :? for help
Loading package ghc-prim ... linking ... done.
Loading package integer-gmp ... linking ... done.
Loading package base ... linking ... done.
Prelude> let x = [15,32,7,19,29,24]
Prelude> let p = [0.1,0.3,0.1,0.1,0.2,0.2]
Prelude> p
[0.1,0.3,0.1,0.1,0.2,0.2]
Prelude> x
[15,32,7,19,29,24]
Prelude> length p
6
Prelude> length x
6
Prelude> let n = sum x
Prelude> n
126
Prelude> let t = zipWith (\ni pi -> (ni - n*pi)**2 / n**pi)
Prelude> t

<interactive>:11:1:
    No instance for (Show ([c0] -> [c0] -> [c0]))
      arising from a use of ‘print’
    In a stmt of an interactive GHCi command: print it
Prelude> let t = zipWith (\ni pi -> (ni - n*pi)**2 / n**pi) x p
Prelude> t
[3.5512841980856287,7.8839674685452055,19.33476952291068,25.253576519720042,5.488998147499209,0.547379316648124]
Prelude> let t = sum $ zipWith (\ni pi -> (ni - n*pi)**2 / n**pi) x p
Prelude> t
62.05997517340889
Prelude> let t = sum $ zipWith (\ni pi -> (ni - n*pi)**2 / (n**pi)) x p
Prelude> t
62.05997517340889
Prelude> let t = sum $ zipWith (\ni pi -> (ni - n*pi)**2 / (n*pi)) x p
Prelude> t
7.716931216931214
Prelude> let t = sum $ zipWith (\ni pi -> (ni - n*pi)**2 / (n*pi)) x [0.2, 0.2, 0.1, 0.1, 0.2, 0.2]
Prelude> t
12.333333333333332
Prelude> 
Leaving GHCi.
dany@dany-ubuntu:~$ vim stat_cw.txt
dany@dany-ubuntu:~$ 



